{
  "project_info": {
    "project_number": "600427845356",
    "firebase_url": "https://basicnetworkplan-364d4.firebaseio.com",
    "project_id": "basicnetworkplan-364d4",
    "storage_bucket": "basicnetworkplan-364d4.appspot.com"
  },
  "client": [
    {
      "client_info": {
        "mobilesdk_app_id": "1:600427845356:android:e6d4d3449459143070f7c9",
        "android_client_info": {
          "package_name": "com.gulshanyadav.flutter_app_yatin"
        }
      },
      "oauth_client": [
        {
          "client_id": "600427845356-i9pd791lq9mbl5jt7qdv859stup4md9h.apps.googleusercontent.com",
          "client_type": 3
        }
      ],
      "api_key": [
        {
          "current_key": "AIzaSyBMQ38PP4PY3caViIE750pcfulKvx0OueM"
        }
      ],
      "services": {
        "appinvite_service": {
          "other_platform_oauth_client": [
            {
              "client_id": "600427845356-i9pd791lq9mbl5jt7qdv859stup4md9h.apps.googleusercontent.com",
              "client_type": 3
            }
          ]
        }
      }
    }
  ],
  "configuration_version": "1"
}